{
  "extensionDescription": {"message": "Zamienia domyślne przewijanie myszą i klawiaturą w naturalne i dostosowywalne płynne przewijanie."},
  "prefwindow_title": {"message": "Preferencje Yet Another Smooth Scrolling"},
  "wheelgroup_label": {"message": "Kółko myszy"},
  "wheelstep_label": {"message": "Ilość linii do przewinięcia"},
  "wheelbdumping_label": {"message": "Płynność - początek ruchu"},
  "wheeldumping_label": {"message": "Płynność"},
  "wheelaccel_label": {"message": "Czułość przyspieszenia"},
  "kbdgroup_label": {"message": "Klawiatura"},
  "usekbd_label": {"message": "Przewijaj płynnie przy pomocy strzałek"},
  "kbdstep_label": {"message": "Ilość linii do przewinięcia"},
  "kbdbdumping_label": {"message": "Płynność - początek ruchu"},
  "kbddumping_label": {"message": "Płynność"},
  "kbdaccel_label": {"message": "Skala przyspieszenia"},
  "accept_label": {"message": "Zamknij"},
  "notice0": {"message": "Te zmiany zostaną wprowadzone po zamknięciu tego okna. Masz trzy profile ustawień. Możesz je przełączać ikoną w pasku statusu i poprzez menu kontekstowe."},
  "notice1": {"message": "Te zmiany zostaną wprowadzone po ponownym uruchomieniu przeglądarki."},
  "wheelstep_tip": {"message": "Piksele do przewinięcie jednym skokiem kółka myszy"},
  "bdumping_tip": {"message": "Opóźnienie nabierania prędkości na początku ruchu"},
  "dumping_tip": {"message": "Długość wytracania prędkości pod koniec ruchu"},
  "wheelaccel_tip": {"message": "Szybsze poruszanie kółkiem powoduje zwiększenie skoku"},
  "kbdstep_tip": {"message": "Piksele do przewinięcie jednym naciśnięciem klawisza"},
  "kbdaccel_tip": {"message": "Współczynnik skalowania jest stosowany podczas powtarzania klawisza"},
  "contextmenu_red": {"message": "Zmień profil przewijania"},
  "contextmenu_green": {"message": "Zmień profil przewijania"},
  "contextmenu_blue": {"message": "Zmień profil przewijania"},
  "statusbar_enable": {"message": "Włączony"},
  "statusbar_option": {"message": "Preferencje..."},
  "panelabel_main": {"message": "Główne"},
  "panelabel_display": {"message": "Pokaż"},
  "panelabel_options": {"message": "Options"},
  "panelabel_blacklist": {"message": "BlackList"},
  "showcontextmenu_label": {"message": "Pozycje w menu kontekstowym"},
  "showstatusbar_label": {"message": "Wskaźnik na pasku statusu"},
  "usepixelscrollmenu_label": {"message": "Per-pixel resolution device support"},
  "usepixelscrollmenu2_label": {"message": "(e.g. MacBook trackpads)"},
  "useflickemulmenu_label": {"message": "Inertial Scrolling"},
  "accelbytravel_label": {"message": "Acceleration by travelling distance"},
  "accelbytravel_tip": {"message": "Amplify speed by travel distance to help long distance travel."},
  "acceptdisplay_label": {"message": "OK"},
  "canceldisplay_label": {"message": "Anuluj"},
  "usepagejump_label": {"message": "Przewijaj płynnie przy pomocy klawiszy Page up/down"},
  "usewholejump_label": {"message": "Use smooth scrolling with home/end keys"},
  "versionmenu_label": {"message": "Smoothing Algorithm:"},
  "versionmenu_item1": {"message": "Original (ver.1)"},
  "versionmenu_item2": {"message": "Manageable (ver.2)"},
  "edgemenu_label": {"message": "Bouncy Edge"},
  "edgemenu_item0": {"message": "Off"},
  "edgemenu_item1": {"message": "30 pixels"},
  "edgemenu_item2": {"message": "60 pixels"},
  "edgemenu_item3": {"message": "120 pixels"},
  "bouncyedgeshadow_label": {"message": "Show classical shadows on out of bounds regions"},  
  "questionmark": {"message": "?"},
  "helpmain": {"message": "You can modify various smoothing parameters in this pane. The changes to these preferences instantly take effect. Check behavior you set on the browser without closing the dialog, and if you want to roll it back, just cancel the dialog. Three preset banks are available to store three different settings. These preset banks can be switched through the icon in statusbar and context menu."},
  "helpmisc": {"message": "You can modify various options selected with checkboxes and menus. Same as main preferences pane, preferences for behavior are instantly take effect."},
  "helpblacklist": {"message": "URIs (separated with line breaks) on which you want to deactivate Yet Another Smooth Scrolling (* for wildcard)"}
}
