{
  "extensionDescription": {"message": "Stellt ein natürlicheres Bildlauf-Verhalten zur Verfügung"},
  "prefwindow_title": {"message": "Yet Another Smooth Scrolling - Einstellungen"},
  "wheelgroup_label": {"message": "Mausrad"},
  "wheelstep_label": {"message": "Schrittweite der Bewegung"},
  "wheelbdumping_label": {"message": "Laufruhe - Anfangsverzögerung"},
  "wheeldumping_label": {"message": "Laufruhe - Nachlaufverzögerung"},
  "wheelaccel_label": {"message": "Beschleunigungs-Empfindlichkeit"},
  "kbdgroup_label": {"message": "Tastatur"},
  "usekbd_label": {"message": "Sanften Bildlauf für die Pfeiltasten(↑,↓) aktivieren"},
  "kbdstep_label": {"message": "Schrittweite der Bewegung"},
  "kbdbdumping_label": {"message": "Laufruhe - Anfangsverzögerung"},
  "kbddumping_label": {"message": "Laufruhe - Nachlaufverzögerung"},
  "kbdaccel_label": {"message": "Beschleunigungsfaktor"},
  "accept_label": {"message": "Schließen"},
  "notice0": {"message": "Änderungen dieser Einstellungen werden sofort wirksam. Hier können drei Vorgaben festgelegt werden, welche per Kontextmenü oder Statusleiste umgeschaltet werden können."},
  "notice1": {"message": "Änderungen dieser Einstellungen werden erst nach einem Neustart des Browser wirksam."},
  "wheelstep_tip": {"message": "Bewegungsweite in Pixel pro Mausradschritt"},
  "bdumping_tip": {"message": "Anfangsverzögerung"},
  "dumping_tip": {"message": "Nachlaufverzögerung"},
  "wheelaccel_tip": {"message": "Mausradbeschleunigung - Schnelleres Drehen des Mausrads beschleunigt den Bildlauf."},
  "kbdstep_tip": {"message": "Bewegungsweite in Pixel bei einem Tastendruck"},
  "kbdaccel_tip": {"message": "Wiederholungsrate bei festgehaltener Pfeiltaste oder wiederholtem Tastendruck"},
  "contextmenu_red": {"message": "Bildlaufeinstellung wechseln"},
  "contextmenu_green": {"message": "Bildlaufeinstellung wechseln"},
  "contextmenu_blue": {"message": "Bildlaufeinstellung wechseln"},
  "statusbar_enable": {"message": "Aktiviert"},
  "statusbar_option": {"message": "Einstellungen..."},
  "panelabel_main": {"message": "Allgemein"},
  "panelabel_display": {"message": "Anzeige"},
  "panelabel_options": {"message": "Einstellungen"},
  "panelabel_blacklist": {"message": "Blacklist"},
  "showcontextmenu_label": {"message": "Vorgaben im Kontextmenü anzeigen"},
  "showstatusbar_label": {"message": "Symbol in der Statusleiste anzeigen"},
  "usepixelscrollmenu_label": {"message": "Unterstützung von pixelgenauen Eingabegeräten"},
  "usepixelscrollmenu2_label": {"message": "(z.B. MacBook Trackpad)"},
  "useflickemulmenu_label": {"message": "Verwende Fingerstrich-Emulation"},
  "accelbytravel_label": {"message": "Acceleration by travelling distance"},
  "accelbytravel_tip": {"message": "Amplify speed by travel distance to help long distance travel."},
  "acceptdisplay_label": {"message": "OK"},
  "canceldisplay_label": {"message": "Abbrechen"},
  "usepagejump_label": {"message": "Sanften Bildlauf für die Bild auf/Bild ab-Tasten aktivieren"},
  "usewholejump_label": {"message": "Sanften Bildlauf für die Pos1/Ende-Tasten aktivieren"},
  "versionmenu_label": {"message": "Bildlaufalgorithmus:"},
  "versionmenu_item1": {"message": "Original (Version 1)"},
  "versionmenu_item2": {"message": "Konfigurierbar (Version 2)"},
  "edgemenu_label": {"message": "Elastischer Browser-Rahmen"},
  "edgemenu_item0": {"message": "Aus"},
  "edgemenu_item1": {"message": "30 Pixel"},
  "edgemenu_item2": {"message": "60 Pixel"},
  "edgemenu_item3": {"message": "120 Pixel"},
  "bouncyedgeshadow_label": {"message": "Show classical shadows on out of bounds regions"},  
  "questionmark": {"message": "?"},
  "helpmain": {"message": "Der Bildlauf kann über diese Parameter angepasst werden. Parameteränderungen werden sofort übernommen, können aber mit [Abbrechen] zurückgesetzt werden. Die Auswirkungen einer Parameteränderung können also bei geöffnetem Einstellungsdialog sofort im Browser überprüft werden. Es stehen dabei 3 Profile zur Speicherung dreier unterschiedlicher Konfigurationen zur Verfügung. Zwischen diesen 3 Profilen kann via einem Symbol in der Statusleiste oder über das Kontextmenü gewechselt werden."},
  "helpmisc": {"message": "Es können vielfältige Parameter über Kontrollkästchen und Auswahlmenüs geändert werden. Wie in den Haupteinstellungen wirken sich Änderungen sofort aus."},
  "helpblacklist": {"message": "Für URLs (getrennt durch Leerzeichen) für die Yet Another Smooth Scrolling deaktiviert werden soll (* als Platzhalter)"}
}
